                                                     My_Data & 6751 $\pm$ 82.4627
                                   My_DibosonSRWZSRWZfileOne & 355.644 $\pm$ 18.8585
                                     My_WjetsSRWZSRWZfileOne & 3679.17 $\pm$ 60.6561
                                     My_ZjetsSRWZSRWZfileOne & 56.0329 $\pm$ 7.48551
                                     My_ttbarSRWZSRWZfileOne & 2283.12 $\pm$ 47.782
                                 My_singletopSRWZSRWZfileOne & 410.103 $\pm$ 20.251
                                        My_FitError_AfterFit & 6784.06 $\pm$ 40.3616

Sideband_fileOne
                                                     My_Data & 10619 $\pm$ 103.308
                           My_DibosonSidebandSidebandfileOne & 161.773 $\pm$ 12.719
                             My_WjetsSidebandSidebandfileOne & 6957.91 $\pm$ 83.4141
                             My_ZjetsSidebandSidebandfileOne & 147.511 $\pm$ 12.1454
                             My_ttbarSidebandSidebandfileOne & 2812.04 $\pm$ 53.0286
                         My_singletopSidebandSidebandfileOne & 485.142 $\pm$ 22.0259
                                        My_FitError_AfterFit & 10564.4 $\pm$ 38.9336

Btag_fileOne
                                                     My_Data & 8178 $\pm$ 90.6532
                                   My_DibosonBtagBtagfileOne & 50.5439 $\pm$ 7.10942
                                     My_WjetsBtagBtagfileOne & 555.644 $\pm$ 23.5721
                                     My_ZjetsBtagBtagfileOne & 14.8294 $\pm$ 3.85089
                                     My_ttbarBtagBtagfileOne & 6841.55 $\pm$ 82.7137
                                 My_singletopBtagBtagfileOne & 748.521 $\pm$ 27.3591
                                        My_FitError_AfterFit & 8211.09 $\pm$ 40.6169

SRWZ_LP_fileTwo
                                                     My_Data & 18188 $\pm$ 135.055
                               My_DibosonSRWZLPSRWZLPfileTwo & 498.401 $\pm$ 22.3249
                                 My_WjetsSRWZLPSRWZLPfileTwo & 13355.8 $\pm$ 115.567
                                 My_ZjetsSRWZLPSRWZLPfileTwo & 244.109 $\pm$ 15.624
                                 My_ttbarSRWZLPSRWZLPfileTwo & 3447.44 $\pm$ 58.7149
                             My_singletopSRWZLPSRWZLPfileTwo & 654.877 $\pm$ 25.5906
                                        My_FitError_AfterFit & 18200.6 $\pm$ 60.4256

Sideband_LP_fileTwo
                                                     My_Data & 15707 $\pm$ 125.517
                       My_DibosonSidebandLPSidebandLPfileTwo & 192.762 $\pm$ 13.8839
                         My_WjetsSidebandLPSidebandLPfileTwo & 11091.5 $\pm$ 105.316
                         My_ZjetsSidebandLPSidebandLPfileTwo & 212.131 $\pm$ 14.5647
                         My_ttbarSidebandLPSidebandLPfileTwo & 3680.92 $\pm$ 60.6706
                     My_singletopSidebandLPSidebandLPfileTwo & 555.736 $\pm$ 23.5741
                                        My_FitError_AfterFit & 15733.1 $\pm$ 62.0892

Btag_LP_fileTwo
                                                     My_Data & 11133 $\pm$ 105.708
                               My_DibosonBtagLPBtagLPfileTwo & 70.7585 $\pm$ 8.41181
                                 My_WjetsBtagLPBtagLPfileTwo & 1496.36 $\pm$ 38.6829
                                 My_ZjetsBtagLPBtagLPfileTwo & 55.4919 $\pm$ 7.44929
                                 My_ttbarBtagLPBtagLPfileTwo & 8610.62 $\pm$ 92.7934
                             My_singletopBtagLPBtagLPfileTwo & 854.154 $\pm$ 29.2259
                                        My_FitError_AfterFit & 11087.4 $\pm$ 39.2761

SRWZ_Resolved_fileThree
                                                     My_Data & 82740 $\pm$ 287.654
                 My_DibosonSRWZResolvedSRWZResolvedfileThree & 1671.51 $\pm$ 40.8841
                   My_WjetsSRWZResolvedSRWZResolvedfileThree & 49051.6 $\pm$ 221.476
                   My_ZjetsSRWZResolvedSRWZResolvedfileThree & 1474.71 $\pm$ 38.4019
                My_multijetSRWZResolvedSRWZResolvedfileThree & 2649.88 $\pm$ 51.477
                   My_ttbarSRWZResolvedSRWZResolvedfileThree & 24375.7 $\pm$ 156.127
               My_singletopSRWZResolvedSRWZResolvedfileThree & 3498.88 $\pm$ 59.1513
                                        My_FitError_AfterFit & 82722.3 $\pm$ 225.984

Sideband_Resolved_fileThree
                                                     My_Data & 214838 $\pm$ 463.512
         My_DibosonSidebandResolvedSidebandResolvedfileThree & 1465.73 $\pm$ 38.2849
           My_WjetsSidebandResolvedSidebandResolvedfileThree & 164656 $\pm$ 405.778
           My_ZjetsSidebandResolvedSidebandResolvedfileThree & 4406.1 $\pm$ 66.3785
        My_multijetSidebandResolvedSidebandResolvedfileThree & 8964.88 $\pm$ 94.683
           My_ttbarSidebandResolvedSidebandResolvedfileThree & 30589.2 $\pm$ 174.898
       My_singletopSidebandResolvedSidebandResolvedfileThree & 4742.71 $\pm$ 68.8673
                                        My_FitError_AfterFit & 214824 $\pm$ 373.048

Btag_Resolved_fileThree
                                                     My_Data & 93257 $\pm$ 305.396
                 My_DibosonBtagResolvedBtagResolvedfileThree & 267.484 $\pm$ 16.3549
                   My_WjetsBtagResolvedBtagResolvedfileThree & 8065.54 $\pm$ 89.8083
                   My_ZjetsBtagResolvedBtagResolvedfileThree & 281.884 $\pm$ 16.7894
                My_multijetBtagResolvedBtagResolvedfileThree & 894.989 $\pm$ 29.9164
                   My_ttbarBtagResolvedBtagResolvedfileThree & 78011.7 $\pm$ 279.306
               My_singletopBtagResolvedBtagResolvedfileThree & 5762.18 $\pm$ 75.909
                                        My_FitError_AfterFit & 93283.8 $\pm$ 195.542

