Expected limit: 0.0643394812942 +0.025202460587 -0.017979323864
Observed limit: 0.0480943061411
Expected limit: 0.06^{+0.03}_{-0.02}
Observed limit: 0.05
 
obs -2s -1s exp +1s _2s
0.05 & 0.03 &  0.05 & 0.06 & 0.09 & 0.12 \
